{
  "name": "peps",
  "app_id": "",
  "proxies": [
    {
      "path": "/api",
      "proxyUrl": "http://127.0.0.1:8080/api"
    }
  ],
  "gulpStartupTasks": [
    "sass",
    "watch"
  ],
  "watchPatterns": [
    "www/**/*",
    "!www/lib/**/*",
    "!www/**/*.map"
  ]
}
